{
  "MULTICHANNELCHATBOTSERVER" : "https://vision.xpresso.ai/expchatbot",
  "xpress_port":1338,
  "MESSAGE_TEXT_GOOGLE_SHEET_ID" : "1EpEnH70OA7KMR979MSFt82IF1bBYCSxJsOd-U5ysHCE",
  "Messages_SHEET_NAME"          : "DevProfileCategories",
  "appID" : "1407446699266584",
  "WebviewURL" : "https://vision.xpresso.ai",
  "PAGE_ACCESS_TOKEN" : "EAAUAELiM0hgBALEtkV926N2mgnhhZCfADn6idK1RAHtAj4RkDOijhbgDC3G5Nfp1JEU0ThO7kXrGwF3bRnPZCVdVwROOeI4bSnww603YZBQHF5yRJuYeDSp1bZCkvlGWr2CPtZA1PeDwyqyPP8LULZCxhCLAvdM1gu6ZCJDX14elAZDZD"


}