i	I
neeed	need
shwme	show me
ib	in
shwme	show me
ib	in
hey there i lost my wallet, i desperately need one	i	I
hey there i lost my wallet, i desperately need one	i	I
hey there i lost my wallet, i desperately need one	i	I
hey there i lost my wallet, i desperately need one	i	I
hey there i lost my wallet, i desperately need one	i	I
hey there i lost my wallet, i desperately need one	i	I
hey there i lost my wallet, i desperately need one	i	I
hey there i lost my wallet, i desperately need one	i	I
ringer tops for my siste	siste	sister
balck shirt	balck	black
black trackpants	trackpants	track pants
i would like to buy some casual shirts for my brothers in yellow 	i	I
