Color Name	Hex Code
Air Force Blue	#5D8AA8
Alice Blue	#F0F8FF
Alizarin	#E32636
Amaranth	#E52B50
Amber	#FFBF00
Android Green	#A4C639
Apple Green	#8DB600
Apricot	#FBCEB1
Aquamarine	#7FFFD4
Army Green	#4B5320
Arsenic	#3B444B
Arylide Yellow	#E9D66B
Ash Grey	#B2BEB5
Asparagus	#87A96B
Atomic Tangerine	#FF9966
Auburn	#6D351A
Azure	#007FFF
Baby Blue	#89CFF0
Baby Blue Eyes	#A1CAF1
Baby Pink	#F4C2C2
Banana Yellow	#FFD12A
Battleship Grey	#848482
Bazaar	#98777B
Beige	#F5F5DC
Bistre	#3D2B1F
Black	#000000
Bleu De France	#318CE7
Blond	#FAF0BE
Blue	#0000FF
Blush	#DE5D83
Bole	#79443B
Boston University Red	#CC0000
Brass	#B5A642
Bright Green	#66FF00
Bright Lavender	#BF94E4
Bright Maroon	#C32148
Bright Pink	#FF007F
Bright Turquoise	#08E8DE
Bright Ube	#D19FE8
British Racing Green	#004225
Bronze	#CD7F32
Brown	#964B00
Bubble Gum	#FFC1CC
Bubbles	#E7FEFF
Buff	#F0DC82
Burgundy	#800020
Burlywood	#DEB887
Burnt Orange	#CC5500
Burnt Sienna	#E97451
Burnt Umber	#8A3324
Byzantine	#BD33A4
Byzantium	#702963
Cadet	#536878
Cadmium Green	#006B3C
Cadmium Orange	#ED872D
Cadmium Red	#E30022
Cambridge Blue	#A3C1AD
Camouflage Green	#78866B
Canary Yellow	#FFEF00
Candy Apple Red	#FF0800
Cardinal	#C41E3A
Caribbean Green	#00CC99
Carmine	#960018
Carolina Blue	#99BADD
Carrot Orange	#ED9121
Ceil	#92A1CF
Celadon	#ACE1AF
Cerulean	#007BA7
Cerulean Blue	#2A52BE
Chamoisee	#A0785A
Champagne	#F7E7CE
Charcoal	#36454F
Chartreuse	#DFFF00
Cherry	#DE3163
Cherry Blossom Pink	#FFB7C5
Chestnut	#CD5C5C
Chocolate	#7B3F00
Chrome Yellow	#FFA700
Cinereous	#98817B
Cinnabar	#E34234
Cinnamon	#D2691E
Citrine	#E4D00A
Classic Rose	#FBCCE7
Clover	#00FF6F
Cobalt	#0047AB
Columbia Blue	#9BDDFF
Cool Black	#002E63
Cool Grey	#8C92AC
Copper	#B87333
Coquelicot	#FF3800
Coral	#FF7F50
Cordovan	#893F45
Corn	#FBEC5D
Cornell Red	#B31B1B
Cornflower Blue	#6495ED
Cornsilk	#FFF8DC
Cream	#FFFDD0
Crimson	#DC143C
Cyan	#00FFFF
Daffodil	#FFFF31
Dandelion	#F0E130
Dark Blue	#00008B
Dark Brown	#654321
Dark Byzantium	#5D3954
Dark Candy Apple Red	#A40000
Dark Cerulean	#08457E
Dark Chestnut	#986960
Dark Coral	#CD5B45
Dark Cyan	#008B8B
Dark Goldenrod	#B8860B
Dark Green	#013220
Dark Jungle Green	#1A2421
Dark Khaki	#BDB76B
Dark Lava	#483C32
Dark Lavender	#734F96
Dark Magenta	#8B008B
Dark Midnight Blue	#003366
Dark Olive Green	#556B2F
Dark Orange	#FF8C00
Dark Pastel Blue	#779ECB
Dark Pastel Green	#03C03C
Dark Pastel Purple	#966FD6
Dark Pastel Red	#C23B22
Dark Pink	#E75480
Dark Powder Blue	#003399
Dark Raspberry	#872657
Dark Salmon	#E9967A
Dark Scarlet	#560319
Dark Sienna	#3C1414
Dark Slate Gray	#2F4F4F
Dark Spring Green	#177245
Dark Tan	#918151
Dark Tangerine	#FFA812
Dark Terra Cotta	#CC4E5C
Dark Violet	#9400D3
Davy'S Grey	#555555
Desert	#C19A6B
Desert Sand	#EDC9AF
Dim Gray	#696969
Dollar Bill	#85BB65
Duke Blue	#00009C
Earth Yellow	#E1A95F
Eggplant	#614051
Emerald	#50C878
Fawn	#E5AA70
Ferrari Red	#FF1C00
Fire Engine Red	#CE1620
Firebrick	#B22222
Flame	#E25822
Flamingo Pink	#FC8EAC
Flavescent	#F7E98E
Forest Green	#014421
Gamboge	#E49B0F
Ghost White	#F8F8FF
Glaucous	#6082B6
Golden Brown	#996515
Golden Yellow	#FFDF00
Goldenrod	#DAA520
Gray	#808080
Green	#008000
Iceberg	#71A6D2
Icterine	#FCF75E
Inchworm	#B2EC5D
India Green	#138808
Indian Red	#FF5C5C
Indian Yellow	#E3A857
International Klein Blue	#002FA7
Ivory	#FFFFF0
Jade	#00A86B
Jasper	#D73B3E
Khaki	#C3B091
Lavender	#B57EDC
Lavender Blue	#CCCCFF
Lavender Blush	#FFF0F5
Lavender Gray	#C4C3D0
Lawn Green	#7CFC00
Lemon	#FFF700
Light Pink	#FFB6C1
Lime	#BFFF00
Magenta	#FF00FF
Mahogany	#C04000
Maroon	#800000
Midnight Blue	#191970
Mint	#3EB489
Mustard	#FFDB58
Navy Blue	#000080
Ochre	#CC7722
Olive	#808000
Orange	#FF7F00
Oxford Blue	#002147
Pastel Blue	#AEC6CF
Pastel Brown	#836953
Pastel Gray	#CFCFC4
Pastel Green	#77DD77
Pastel Magenta	#F49AC2
Pastel Orange	#FFB347
Pastel Pink	#FFD1DC
Pastel Purple	#B39EB5
Pastel Red	#FF6961
Pastel Violet	#CB99C9
Pastel Yellow	#FDFD96
Peach	#FFE5B4
Pear	#D1E231
Pearl	#F0EAD6
Peridot	#E6E200
Pine Green	#01796F
Pink	#FFC0CB
Pistachio	#93C572
Platinum	#E5E4E2
Plum	#8E4585
Portland Orange	#FF5A36
Prune	#701C1C
Pumpkin	#FF7518
Purple Heart	#69359C
Raspberry	#E30B5D
Raw Umber	#826644
Red	#FF0000
Rifle Green	#414833
Rose	#F4C2C2
Rosewood	#65000B
Royal Blue	#002366
Ruby	#E0115F
Rust	#B7410E
Safety Orange	#FF6700
Saffron	#F4C430
Salmon	#FF8C69
Sand	#C2B280
Sand Dune	#967117
Sandstorm	#ECD540
Sapphire	#082567
Seal Brown	#321414
Seashell	#FFF5EE
Sepia	#704214
Shadow	#8A795D
Silver	#C0C0C0
Sinopia	#CB410B
Sky Blue	#87CEEB
Sky Magenta	#CF71AF
Snow	#FFFAFA
Spring Bud	#A7FC00
Steel Blue	#4682B4
Straw	#E4D96F
Sunset	#FAD6A5
Tangerine	#F28500
Teal	#008080
Terra Cotta	#E2725B
Titanium Yellow	#EEE600
Tropical Rain Forest	#00755E
Turquoise	#30D5C8
Ultramarine	#120A8F
United Nations Blue	#5B92E5
Vanilla	#F3E5AB
Violet	#8F00FF
Wheat	#F5DEB3
White	#FFFFFF
White Smoke	#F5F5F5
Xanadu	#738678
Yale Blue	#0F4D92
Yellow	#FFFF00
Navy	#000080
Grey	#808080
gold	#FAFAD2
Tan	#D2B48C
Purple	#800080
Indigo	#4B0082
tomato	#FF6347
orchid	#DA70D6
Aqua	#00FFFF
Nude	#E5B292
Chrome	
Rhodium	
Metallic	
Paisley	#8B4DAF
Pine forest	
lilac	#C8A2C8
Fuchsia	#FF00FF
