{
  "SWAGGER":{
    "PATH" : "/docs/",
    "JSON_FILE" : "./config/swagger.json",
    "JSON_PATH" : "/swagger_file"
  },
  "API":{
    "VISION" : "http://vision.xpresso.ai/visionconsumer/",
    "NLP" : "http://prodapi.xpresso.ai/nlpprodintent/",
    "DATALAYER" : "http://prodapi.xpresso.ai/datalayer/v1/elasticsearch/",
    "COLLECTION" : "http://prodapi.xpresso.ai/collection/",
    "NLP_CUSTOMER_SERVICE" : "http://prodapi.xpresso.ai/cs-bc/",
    "RE_RANKER_SERVICE" : "http://prodapi.xpresso.ai/rankerservice/v1/core/rankmeup"
  },
  "EMOTION_HANDLER": "RASA",
  "RASA":{
    "API": "http://prodapi.xpresso.ai/entity-extraction",
    "TOKEN" : "J6wOwW4dVEQfmCcW"
  },
  "WIT":{
    "API" : "https://api.wit.ai",
    "TOKEN" : "IBEQXTEPS5UROMN4QYFS2I4MWM2D5AZO",
    "TOKEN_JEANIE": "M3QI4YWJ4NXI3HWYJE3XRW3H34Y2BZZ6"
  },
  "RELAXATION":{
    "JSON_PATH": "./config/relaxation_structure.json"
  },
  "CACHE":{
    "SIZE" : 1000
  },
  "FILTER":{
    "IGNORE" : [ "xc_category", "xc_hierarchy_str", "gender" ]
  }
}
